%YAML 1.1
%TAG !u! tag:unity3d.com,2011:
--- !u!114 &11400000
MonoBehaviour:
  m_ObjectHideFlags: 0
  m_CorrespondingSourceObject: {fileID: 0}
  m_PrefabInstance: {fileID: 0}
  m_PrefabAsset: {fileID: 0}
  m_GameObject: {fileID: 0}
  m_Enabled: 1
  m_EditorHideFlags: 0
  m_Script: {fileID: 763834002, guid: 5b00bf8b25851d440940a40ec23344f4, type: 3}
  m_Name: BoltPrefabDatabase
  m_EditorClassIdentifier: 
  DatabaseMode: 0
  Prefabs:
  - {fileID: 0}
  - {fileID: 545145522, guid: 06f4004b7e131c744818472fae8836eb, type: 3}
  - {fileID: 2632203207146509457, guid: ed505c4a60fb91f4aaf7dfbe2276cb05, type: 3}
  - {fileID: 4675947561599391540, guid: ef0909a257245d6498d274bd7bebea43, type: 3}
  - {fileID: 1201386861619334, guid: d0d192d3a2cd0a84a86e2b48fa3bd24c, type: 3}
  - {fileID: 6193449073041500330, guid: 6f1c05f5083a3ec4bb1cd0d9d4d9ed14, type: 3}
  - {fileID: 421214752329475646, guid: 5c6efd171913365468170ca34659090d, type: 3}
  - {fileID: 8083220799551253032, guid: 9bddc029de08b3f4ebf08a87560c2366, type: 3}
  - {fileID: 7400157098615909679, guid: ea12bebf88252ab48bd0aff2668ebee1, type: 3}
  - {fileID: 2070085329707265701, guid: f1afbb3b649367a49b2deacd1b9ce1ee, type: 3}
  - {fileID: 5898910933448500878, guid: 02a6547dc9d8da9429b9b2c309ea9e7c, type: 3}
  - {fileID: 1689711360424305698, guid: 1b10b1f259e022d439ac1f30a9ce7879, type: 3}
  - {fileID: 4958973904481031270, guid: ff477cd4c377e1b4a85aba065026d7df, type: 3}
  - {fileID: 7337115727036779804, guid: b758a2f76a9a3504fab4477ff22b02c2, type: 3}
  - {fileID: 4194035389028641493, guid: d4e1686e4be4ae74da55579d7b86fa19, type: 3}
  - {fileID: 8700234922089406398, guid: 5534b8cb7ac53044a816e2e4044081db, type: 3}
  - {fileID: 100000, guid: b5907a8b9fa4ef549b9dd4f8a9e863eb, type: 3}
  - {fileID: 100000, guid: 9e4c13062a8548e438c26a67020d9895, type: 3}
  - {fileID: 100000, guid: e6dd368eb36c92b429be2244b9da818a, type: 3}
  - {fileID: 1335787916281456, guid: 0687f1a3f1bee4e59af7d19d1451661b, type: 3}
  - {fileID: 1706063248089286, guid: b57faef6db4664e0493241e9e0fbdd9a, type: 3}
  - {fileID: 1613854665616328, guid: 79b73655e226e45c88b90fd215605ca6, type: 3}
  - {fileID: 100094, guid: dff296f12d6973b44a2d6c383e217f76, type: 3}
  - {fileID: 1760237739261228, guid: 0e5aba4979e444340b5ba527b266572e, type: 3}
  - {fileID: 1501915568614306, guid: 879dca49eec36428592dea9f860775b4, type: 3}
  - {fileID: 1093895774965776, guid: 5f4ce519e6b1b45acbf4f4a2d461943d, type: 3}
  - {fileID: 1093895774965776, guid: 22d1a7e17827244bba7e0af01b910db6, type: 3}
  SearchPaths: []
