%YAML 1.1
%TAG !u! tag:unity3d.com,2011:
--- !u!1 &1433711808359016497
GameObject:
  m_ObjectHideFlags: 0
  m_CorrespondingSourceObject: {fileID: 0}
  m_PrefabInstance: {fileID: 0}
  m_PrefabAsset: {fileID: 0}
  serializedVersion: 6
  m_Component:
  - component: {fileID: 2719831762020817442}
  - component: {fileID: 6405752737117265940}
  - component: {fileID: 853791977082690797}
  m_Layer: 0
  m_Name: escudo
  m_TagString: Untagged
  m_Icon: {fileID: 0}
  m_NavMeshLayer: 0
  m_StaticEditorFlags: 0
  m_IsActive: 1
--- !u!4 &2719831762020817442
Transform:
  m_ObjectHideFlags: 0
  m_CorrespondingSourceObject: {fileID: 0}
  m_PrefabInstance: {fileID: 0}
  m_PrefabAsset: {fileID: 0}
  m_GameObject: {fileID: 1433711808359016497}
  m_LocalRotation: {x: 1, y: -0, z: 0, w: -0.0000000754979}
  m_LocalPosition: {x: -9.4973545, y: 3.9743037, z: 24.285036}
  m_LocalScale: {x: 100, y: 100, z: 100}
  m_Children: []
  m_Father: {fileID: 0}
  m_RootOrder: 0
  m_LocalEulerAnglesHint: {x: 0, y: 0, z: 0}
--- !u!33 &6405752737117265940
MeshFilter:
  m_ObjectHideFlags: 0
  m_CorrespondingSourceObject: {fileID: 0}
  m_PrefabInstance: {fileID: 0}
  m_PrefabAsset: {fileID: 0}
  m_GameObject: {fileID: 1433711808359016497}
  m_Mesh: {fileID: 6240159341419647114, guid: 15a07f1f60836a64ca7fd877de1b1c7d, type: 3}
--- !u!23 &853791977082690797
MeshRenderer:
  m_ObjectHideFlags: 0
  m_CorrespondingSourceObject: {fileID: 0}
  m_PrefabInstance: {fileID: 0}
  m_PrefabAsset: {fileID: 0}
  m_GameObject: {fileID: 1433711808359016497}
  m_Enabled: 1
  m_CastShadows: 1
  m_ReceiveShadows: 1
  m_DynamicOccludee: 1
  m_MotionVectors: 1
  m_LightProbeUsage: 1
  m_ReflectionProbeUsage: 1
  m_RenderingLayerMask: 1
  m_RendererPriority: 0
  m_Materials:
  - {fileID: 2100000, guid: a36405a401ba3a942962231f188c522c, type: 2}
  - {fileID: 2100000, guid: 1d3bf1163ccbb6b41be6dbe43125b709, type: 2}
  - {fileID: 2100000, guid: ef68b05c1b4177c4983edb881047871b, type: 2}
  - {fileID: 2100000, guid: fcb558ca8fce9734ebe12de7b2af9fe1, type: 2}
  - {fileID: 2100000, guid: 82e55e7f44582474baeff4d3a4a606b1, type: 2}
  - {fileID: 2100000, guid: 1cd2cdb2cff0c174b96b4f387713bfce, type: 2}
  - {fileID: 2100000, guid: 2451a620a599b1b4191666645ebd9853, type: 2}
  - {fileID: 2100000, guid: 66991b909b6c836448da199a38d32c20, type: 2}
  m_StaticBatchInfo:
    firstSubMesh: 0
    subMeshCount: 0
  m_StaticBatchRoot: {fileID: 0}
  m_ProbeAnchor: {fileID: 0}
  m_LightProbeVolumeOverride: {fileID: 0}
  m_ScaleInLightmap: 1
  m_ReceiveGI: 1
  m_PreserveUVs: 0
  m_IgnoreNormalsForChartDetection: 0
  m_ImportantGI: 0
  m_StitchLightmapSeams: 1
  m_SelectedEditorRenderState: 3
  m_MinimumChartSize: 4
  m_AutoUVMaxDistance: 0.5
  m_AutoUVMaxAngle: 89
  m_LightmapParameters: {fileID: 0}
  m_SortingLayerID: 0
  m_SortingLayer: 0
  m_SortingOrder: 0
